Stat 585 - APIs
…
ames_dog_df <- ames_dogs %>% purrr::map_df(dog_to_df)
```

---

## Your Turn Solutions

```r
ames_dog_df
```

```
## # A tibble: 25 x 7
##    name   breed        age   sex   id      shelterID pics   
##    <chr>  <chr>        <chr> <chr> <chr>   <chr>     <list> 
##  1 TOBY   Beagle       Adult M     443063… IA197     <chr […
##  2 KHALI… Pit Bull Te… Young M     441727… IA197     <chr […
##  3 Diamo… German Shep… Adult F     436089… IA158     <chr […
##  4 Diesel Pit Bull Te… Adult M     419611… IA49      <chr […
##  5 Franco Labrador Re… Adult M     442465… IA06      <chr […
##  6 Logan  Labrador Re… Adult M     441940… IA06      <chr […
##  7 Geddy  Coonhound    Adult M     441212… IA06      <chr […
##  8 Dory   Shih Tzu     Adult F     441831… IA06      <chr […
##  9 Holly  Shepherd     Adult F     442465… IA06      <chr […
## 10 Emma   Shepherd     Adult F     439250… IA06      <chr […
## # … with 15 more rows
```
…
