Stat 585 - List variables
…
one step into the right direction is the use of list variables:

```r
gapminderplus <- gapminder %>% 
   group_by(country) %>%
   mutate(year = year - 1950) %>% 
   summarize(
     model = list(lm(lifeExp ~ year))
   )

gapminderplus
```

```
## # A tibble: 142 x 2
##    country     model   
##    <fct>       <list>  
##  1 Afghanistan <S3: lm>
##  2 Albania     <S3: lm>
##  3 Algeria     <S3: lm>
##  4 Angola      <S3: lm>
##  5 Argentina   <S3: lm>
##  6 Australia   <S3: lm>
##  7 Austria     <S3: lm>
##  8 Bahrain     <S3: lm>
##  9 Bangladesh  <S3: lm>
## 10 Belgium     <S3: lm>
## # ... with 132 more rows
```
…
## nest

- `nest` is a function in `tidyr`: creates variable `data`

- `data` is (list) variable of data frames

```r
countryList <- gapminder %>% mutate(year = year-1950) %>% 
  nest(-country, -continent) 
countryList 
```

```
## # A tibble: 142 x 3
##    country     continent data             
##    <fct>       <fct>     <list>           
##  1 Afghanistan Asia      <tibble [12 × 4]>
##  2 Albania     Europe    <tibble [12 × 4]>
##  3 Algeria     Africa    <tibble [12 × 4]>
##  4 Angola      Africa    <tibble [12 × 4]>
##  5 Argentina   Americas  <tibble [12 × 4]>
##  6 Australia   Oceania   <tibble [12 × 4]>
##  7 Austria     Europe    <tibble [12 × 4]>
##  8 Bahrain     Asia      <tibble [12 × 4]>
##  9 Bangladesh  Asia      <tibble [12 × 4]>
## 10 Belgium     Europe    <tibble [12 × 4]>
## # ... with 132 more rows
```
…
---

## Ready to fly!

The opposite of `nest` is `unnest`:

```r
coefs <- countryList %>% select(country, continent, coefs) %>% 
  unnest()
coefs
```

```
## # A tibble: 284 x 7
##    country     continent term        estimate std.error statistic  p.value
##    <fct>       <fct>     <chr>          <dbl>     <dbl>     <dbl>    <dbl>
##  1 Afghanistan Asia      (Intercept)   29.4     0.699       42.0  1.40e-12
##  2 Afghanistan Asia      year           0.275   0.0205      13.5  9.84e- 8
##  3 Albania     Europe    (Intercept)   58.6     1.13        51.7  1.79e-13
##  4 Albania     Europe    year           0.335   0.0332      10.1  1.46e- 6
##  5 Algeria     Africa    (Intercept)   42.2     0.756       55.8  8.22e-14
##  6 Algeria     Africa    year           0.569   0.0221      25.7  1.81e-10
##  7 Angola      Africa    (Intercept)   31.7     0.804       39.4  2.63e-12
##  8 Angola      Africa    year           0.209   0.0235       8.90 4.59e- 6
##  9 Argentina   Americas  (Intercept)   62.2     0.167      372.   4.80e-22
## 10 Argentina   Americas  year           0.232   0.00489     47.4  4.22e-13
## # ... with 274 more rows
```
…
